<?xml version="1.0" standalone="no"?>
<!DOCTYPE svg PUBLIC "-//W3C//DTD SVG 1.1//EN" "http://www.w3.org/Graphics/SVG/1.1/DTD/svg11.dtd">
<svg xmlns="http://www.w3.org/2000/svg">
<metadata>Copyright (C) 2014 by original authors @ fontello.com</metadata>
<defs>
<font id="arrowdropdowna" horiz-adv-x="1000" >
<font-face font-family="arrowdropdowna" font-weight="400" font-stretch="normal" units-per-em="1000" ascent="850" descent="-150" />
<missing-glyph horiz-adv-x="1000" />
<glyph glyph-name="down-dir" unicode="&#x31;" d="m460 550l-230-400-230 400 460 0z" horiz-adv-x="460" />
<glyph glyph-name="left-dir" unicode="&#x32;" d="m400 580l0-460-400 230z" horiz-adv-x="400" />
<glyph glyph-name="right-dir" unicode="&#x33;" d="m0 580l400-230-400-230 0 460z" horiz-adv-x="400" />
<glyph glyph-name="up-dir" unicode="&#x35;" d="m0 150l230 400 230-400-460 0z" horiz-adv-x="460" />
</font>
</defs>
</svg>