<?xml version="1.0" standalone="no"?>
<!DOCTYPE svg PUBLIC "-//W3C//DTD SVG 1.1//EN" "http://www.w3.org/Graphics/SVG/1.1/DTD/svg11.dtd">
<svg xmlns="http://www.w3.org/2000/svg">
<metadata>Copyright (C) 2014 by original authors @ fontello.com</metadata>
<defs>
<font id="plus" horiz-adv-x="1000" >
<font-face font-family="plus" font-weight="400" font-stretch="normal" units-per-em="1000" ascent="850" descent="-150" />
<missing-glyph horiz-adv-x="1000" />
<glyph glyph-name="round77" unicode="&#x30;" d="m500 799c-243 0-439-196-439-439s196-440 439-440 440 197 440 440-197 439-440 439z m205-467c0-19-16-35-35-35h-105v-106c0-19-16-35-36-35h-58c-20 0-35 16-35 35v106h-106c-19 0-35 16-35 35v59c0 19 16 35 35 35h106v105c0 20 16 35 35 35h58c20 0 36-16 36-35v-105h105c19 0 35-16 35-35v-59z" horiz-adv-x="1000" />
<glyph glyph-name="add73" unicode="&#x31;" d="m500 739c-209 0-378-169-378-378s169-378 378-378 378 169 378 378-169 378-378 378z m216-439h-161v-161c0-27-22-49-50-49-27 0-50 22-50 49v161h-161c-27 0-49 23-49 50s22 50 49 50h161v161c0 27 23 50 50 50 28 0 50-23 50-50v-161h161c27 0 50-22 50-50s-23-50-50-50z" horiz-adv-x="1000" />
<glyph glyph-name="add133" unicode="&#x32;" d="m656 413h-93v93c0 35-28 63-63 63s-62-28-62-63v-93h-94c-35 0-63-28-63-63 0-34 28-62 63-62h94v-94c0-35 28-63 62-63s63 28 63 63v94h93c35 0 63 28 63 62 0 35-28 63-63 63z m-156 437c-276 0-500-224-500-500s224-500 500-500c276 0 500 224 500 500s-224 500-500 500z m0-906c-224 0-406 182-406 406s182 406 406 406c224 0 406-182 406-406s-182-406-406-406z" horiz-adv-x="1000" />
<glyph glyph-name="add139" unicode="&#x33;" d="m500 850c-276 0-500-224-500-500s224-500 500-500c276 0 500 224 500 500s-224 500-500 500z m0-938c-242 0-437 196-437 438s195 438 437 438 438-196 438-438-196-438-438-438z m188 469h-157v157c0 17-14 31-31 31-17 0-31-14-31-31v-157h-156c-18 0-32-14-32-31s14-31 32-31h156v-156c0-18 14-32 31-32 17 0 31 14 31 32v156h157c17 0 31 14 31 31s-14 31-31 31z" horiz-adv-x="1000" />
<glyph glyph-name="cross8" unicode="&#x34;" d="m781 350h-218v219c0 17-15 31-32 31-17 0-31-14-31-31v-219h-219c-17 0-31-14-31-31 0-17 14-31 31-31h219v-219c0-17 14-31 31-31 17 0 32 14 32 31v219h218c17 0 32 14 32 31 0 17-15 31-32 31z" horiz-adv-x="1000" />
<glyph glyph-name="minus25" unicode="&#x35;" d="m879 350c0-37-29-66-66-66h-626c-18 0-35 7-47 19-12 12-19 29-19 47 0 37 29 66 66 66l626 0c37 0 66-29 66-66z" horiz-adv-x="1000" />
<glyph glyph-name="round53" unicode="&#x36;" d="m500 767c-229 0-417-188-417-417s188-417 417-417c229 0 417 188 417 417 0 229-188 417-417 417z m0-750c-183 0-333 150-333 333 0 183 150 333 333 333 183 0 333-150 333-333 0-183-150-333-333-333z m-167 291h334v84h-334v-84z" horiz-adv-x="1000" />
<glyph glyph-name="minus87" unicode="&#x37;" d="m704 381l-408 0c-17 0-30-14-30-31 0-17 13-31 30-31l408 0c17 0 30 14 30 31 0 17-13 31-30 31z m-204 469c-276 0-500-224-500-500s224-500 500-500 500 224 500 500-224 500-500 500z m0-938c-242 0-437 196-437 438s195 438 437 438 438-196 438-438-196-438-438-438z" horiz-adv-x="1000" />
<glyph glyph-name="round57" unicode="&#x38;" d="m542 517h-84v-125h-125v-84h125v-125h84v125h125v84h-125v125z m-42 250c-229 0-417-188-417-417s188-417 417-417c229 0 417 188 417 417 0 229-188 417-417 417z m0-750c-183 0-333 150-333 333 0 183 150 333 333 333 183 0 333-150 333-333 0-183-150-333-333-333z" horiz-adv-x="1000" />
<glyph glyph-name="round60" unicode="&#x39;" d="m496-124c-262 0-474 213-474 474 0 262 212 475 474 475 261 0 474-213 474-475 0-261-213-474-474-474z m0 803c-182 0-329-147-329-329 0-181 147-329 329-329s329 148 329 329c0 182-148 329-329 329z m255-330c0-41-33-74-74-74h-362c-41 0-74 33-74 74 0 42 34 77 77 77h359c41 0 74-33 74-74v-3z" horiz-adv-x="1000" />
</font>
</defs>
</svg>